<svg xmlns="http://www.w3.org/2000/svg" width="150" height="150" viewBox="0 0 150 150">
  <g
     id="Design"
     transform="matrix(1.875,0,0,1.875,-65.625,-65.625)">
    <path
       class="cls-2"
       d="M 92,43 V 95.02332 H 82 C 78.76379,90.4386 68.48431,84.8324 55,84.02332 H 35 V 54 h 9 v 15 h 4 V 54 h 7 C 68.48431,53.19086 78.76379,47.58466 82,43 Z m 4,14 c 4.85855,1.82002 8.31702,6.50612 8.31702,12 0,5.49388 -3.45847,10.18008 -8.31702,12 z M 51,88 v 19 H 41 V 88 Z m 55.18372,-27.14545 8.66199,-4.0423 -1.69141,-3.62451 -9.35736,4.36676 c 0.92688,0.99921 1.72467,2.11005 2.38678,3.30005 z m -2.3866,19.591 9.35718,4.3667 1.69141,-3.62451 -8.66187,-4.04224 c -0.66211,1.19 -1.45984,2.30078 -2.38672,3.30005 z m 4.38702,-13.44556 c 0.0801,0.65961 0.13324,1.32538 0.13324,2 0,0.67462 -0.0532,1.34039 -0.13324,2 H 115 v -4 z"
       id="path9" />
  </g>
</svg>
