<svg xmlns="http://www.w3.org/2000/svg" width="150" height="150" viewBox="0 0 150 150">
  <g
     id="Design"
     transform="matrix(1.7938687,0,0,1.7938687,-59.540152,-59.540151)">
    <path
       d="m 85.37408,64.96882 -3.56207,2.05646 C 80.84418,66.19728 79.72363,65.54731 78.5,65.11268 v -4.11267 h -7 v 4.11267 c -1.22363,0.43463 -2.34418,1.08459 -3.31201,1.9126 l -3.56207,-2.05646 -3.5,6.06232 3.5575,2.05396 c -0.11505,0.62177 -0.18341,1.26038 -0.18341,1.91492 0,0.65454 0.06836,1.29309 0.18341,1.91492 l -3.5575,2.05389 3.5,6.06232 3.56207,-2.05646 c 0.96783,0.828 2.08838,1.47797 3.31201,1.91266 v 4.11267 h 7 v -4.11267 c 1.22363,-0.43469 2.34418,-1.08466 3.31201,-1.91266 l 3.56207,2.05646 3.5,-6.06232 -3.5575,-2.05389 c 0.1156,-0.62183 0.18341,-1.26038 0.18341,-1.91492 0,-0.65454 -0.06781,-1.29315 -0.18341,-1.91492 l 3.5575,-2.05396 z M 75,80.99998 c -3.30821,0 -6,-2.69152 -6,-5.99997 0,-3.30845 2.69179,-6.00003 6,-6.00003 3.30821,0 6,2.69152 6,6.00003 0,3.30851 -2.69179,5.99997 -6,5.99997 z m 7.93628,22.931 1.85187,6.75092 c -0.61945,0.16943 -1.24628,0.32446 -1.88092,0.46332 -19.9624,4.367 -39.68536,-8.27551 -44.05243,-28.23798 -1.95428,-8.93335 -0.47949,-17.80457 3.51428,-25.28467 l -8.10034,1.3623 -1.07782,-6.41028 18.70978,-3.14624 5.96106,18.01709 -6.17145,2.04163 -2.95404,-8.92853 c -3.38385,6.14227 -4.65613,13.47986 -3.04321,20.85272 3.53522,16.15991 19.55835,26.43085 35.71826,22.89563 0.51447,-0.11255 1.02264,-0.23846 1.52496,-0.37592 z m 33.8728,-6.50555 -18.70972,3.14618 -5.96106,-18.01709 6.17145,-2.04163 2.95953,8.94543 c 3.38733,-6.1449 4.65143,-13.49274 3.03766,-20.86963 C 100.77172,52.42884 84.74859,42.1579 68.58868,45.69306 c -0.51447,0.11255 -1.02264,0.23846 -1.52496,0.37592 l -1.85187,-6.75092 c 0.61945,-0.16937 1.24628,-0.32446 1.88092,-0.46326 19.9624,-4.36707 39.68536,8.27551 44.05243,28.23792 1.9538,8.93121 0.48682,17.80402 -3.50421,25.28302 l 8.09033,-1.36066 1.07776,6.41034 z"
       id="path9" />
  </g>
</svg>
