<?xml version="1.0" encoding="utf-8"?>
<!-- Generator: Adobe Illustrator 28.3.0, SVG Export Plug-In . SVG Version: 6.00 Build 0)  -->
<svg version="1.1" id="Layer_1" xmlns="http://www.w3.org/2000/svg" xmlns:xlink="http://www.w3.org/1999/xlink" x="0px" y="0px"
	 width="400px" height="245px" viewBox="0 0 400 245" style="enable-background:new 0 0 400 245;" xml:space="preserve">
<g>
	<g>
		<path d="M140.7,138.8c-2,0-3.6-0.5-4.8-1.4c-1.3-0.9-1.9-1.9-1.9-2.9V93c0-1.3,0.6-2.3,1.9-3.1c1.3-0.8,2.9-1.2,4.8-1.2
			c1.7,0,3.1,0.4,4.3,1.2c1.2,0.8,1.7,1.8,1.7,3.1v3.2c1.2-2,2.9-3.9,5.3-5.5c2.3-1.6,5.2-2.5,8.7-2.5c3,0,5.7,1,8,2.9
			c2.3,2,4,4.5,5.2,7.6c1.8-3.6,4.2-6.2,7-7.9c2.8-1.7,5.8-2.6,8.8-2.6c3.2,0,6.3,0.8,9.1,2.5c2.8,1.6,5.2,4.1,6.9,7.3
			c1.8,3.2,2.7,7.1,2.7,11.6v25c0,1.1-0.7,2-2,2.9c-1.3,0.9-2.9,1.4-4.8,1.4c-1.8,0-3.4-0.5-4.7-1.4c-1.3-0.9-2-1.9-2-2.9v-25
			c0-2.1-0.4-3.9-1.2-5.3c-0.8-1.4-1.9-2.5-3.2-3.2c-1.3-0.7-2.7-1.1-4.1-1.1c-1.4,0-2.7,0.4-3.9,1.1c-1.2,0.7-2.3,1.8-3.1,3.2
			c-0.8,1.4-1.3,3.1-1.3,5.2v25.2c0,1.5-0.7,2.5-2.2,3.2c-1.4,0.7-3,1-4.7,1c-1.5,0-3.1-0.3-4.5-1c-1.5-0.7-2.2-1.7-2.2-3.2v-25.1
			c0-2-0.4-3.6-1.2-5.1c-0.8-1.4-1.9-2.5-3.2-3.3c-1.3-0.8-2.7-1.2-4.2-1.2c-1.4,0-2.7,0.4-4,1.1c-1.3,0.7-2.3,1.8-3.1,3.2
			c-0.8,1.4-1.2,3.2-1.2,5.3v25c0,1.1-0.7,2-2,2.9C144.2,138.3,142.6,138.8,140.7,138.8z"/>
		<path d="M229.2,139.8c-3.7,0-6.9-1.1-9.6-3.4c-2.7-2.3-4.1-5.8-4.1-10.6c0-4,1-7.1,3.1-9.4c2.1-2.2,4.9-3.8,8.6-4.7
			c3.7-0.9,7.9-1.4,12.8-1.4h4.3v-1.4c0-1.5-0.3-3.1-0.9-4.5c-0.6-1.5-1.5-2.7-2.8-3.7c-1.3-1-3.1-1.5-5.5-1.5
			c-2.7,0-4.7,0.3-6.2,0.8c-1.4,0.5-2.5,1.1-3.3,1.6c-0.8,0.6-1.6,0.8-2.5,0.8c-1.5,0-2.6-0.7-3.4-2.2c-0.8-1.5-1.2-3-1.2-4.5
			c0-1.5,0.9-2.8,2.7-3.9s4-2.1,6.6-2.7c2.6-0.6,5.1-0.9,7.6-0.9c5.5,0,9.9,1,13.2,2.9c3.3,2,5.7,4.5,7.2,7.6
			c1.5,3.1,2.3,6.4,2.3,10v25.8c0,1.2-0.6,2.2-1.9,3.1c-1.3,0.8-2.8,1.3-4.7,1.3c-1.8,0-3.2-0.4-4.4-1.3s-1.7-1.9-1.7-3.1v-3.1
			c-1.9,2.2-4.1,4.1-6.7,5.8C236,138.9,232.9,139.8,229.2,139.8z M234.7,129.6c1.5,0,2.9-0.5,4.4-1.5c1.5-1,2.7-2.2,3.7-3.8
			c1-1.5,1.5-3.2,1.5-4.8v-2.2h-1.6c-2.3,0-4.5,0.1-6.6,0.4c-2.1,0.3-3.8,0.9-5.1,1.8c-1.3,0.9-1.9,2.4-1.9,4.4c0,2,0.5,3.4,1.6,4.3
			C231.8,129.2,233.1,129.6,234.7,129.6z"/>
		<path d="M274.7,138.8c-1.9,0-3.5-0.5-4.7-1.4c-1.3-0.9-1.9-1.9-1.9-2.9V93c0-1.3,0.6-2.3,1.9-3.1c1.3-0.8,2.8-1.2,4.7-1.2
			c1.8,0,3.2,0.4,4.4,1.2c1.2,0.8,1.7,1.8,1.7,3.1v4.3c0.8-1.5,1.8-3,3.1-4.4c1.3-1.4,2.8-2.5,4.5-3.4c1.7-0.9,3.5-1.4,5.4-1.4h3.3
			c1.3,0,2.5,0.6,3.5,1.7c1,1.2,1.5,2.5,1.5,4.2c0,1.7-0.5,3.1-1.5,4.3c-1,1.2-2.1,1.7-3.5,1.7h-3.3c-2,0-3.9,0.6-5.7,1.9
			c-1.9,1.3-3.4,3.1-4.6,5.4c-1.2,2.3-1.8,5-1.8,8.3v18.8c0,1.1-0.7,2-2,2.9C278.3,138.3,276.7,138.8,274.7,138.8z"/>
		<path d="M326.7,162.1c-4.1,0-8-0.6-11.5-1.7c-3.5-1.2-6.4-2.9-8.5-5.1c-2.1-2.2-3.2-4.9-3.2-8c0-2.7,0.7-4.9,2.2-6.8
			c1.5-1.9,3.3-3.3,5.5-4.4c-1.3-0.6-2.4-1.5-3.2-2.5c-0.8-1.1-1.2-2.5-1.2-4.2c0-2,0.5-3.6,1.5-4.8c1-1.2,2.3-2.4,3.8-3.4
			c-2.1-1.6-3.7-3.6-4.8-5.8c-1.1-2.3-1.7-4.8-1.7-7.5v-2.2c0-3.4,0.8-6.5,2.5-9.1c1.7-2.6,4.1-4.6,7.2-6.1
			c3.1-1.5,6.7-2.2,10.8-2.2c2.3,0,4.5,0.3,6.5,0.8c2,0.5,3.9,1.3,5.5,2.3c1.2-2.8,2.3-4.7,3.4-5.7c1.1-1,2.1-1.5,3.1-1.5
			c1.7,0,3,0.5,3.9,1.5c0.9,1,1.4,1.9,1.4,2.7c0,0.6-0.2,1.2-0.5,1.7c-0.3,0.5-0.8,0.9-1.3,1.3c-0.6,0.4-1.4,0.9-2.3,1.5
			c-0.9,0.6-1.8,1.4-2.5,2.5c1.3,1.4,2.2,3,2.8,4.7c0.6,1.7,0.9,3.6,0.9,5.6v2.2c0,3.4-0.9,6.4-2.6,9c-1.8,2.6-4.2,4.7-7.4,6.3
			c-3.2,1.5-6.8,2.3-10.8,2.3c-2.5,0-4.8-0.3-6.8-0.9c-0.4,0.3-0.6,0.6-0.9,0.9c-0.2,0.4-0.4,0.7-0.4,1.2c0,1.2,0.8,2,2.3,2.5
			c1.5,0.5,3.5,0.9,5.9,1.2c2.4,0.3,4.9,0.6,7.6,1.1c2.7,0.5,5.2,1.2,7.6,2.2c2.4,1,4.4,2.4,5.9,4.4c1.5,1.9,2.3,4.5,2.3,7.7
			c0,3.9-1.1,7.1-3.3,9.5c-2.2,2.4-5.1,4.2-8.5,5.3C334.4,161.5,330.6,162.1,326.7,162.1z M326.5,153.3c2.7,0,5.1-0.7,7-2
			c1.9-1.3,2.9-3.1,2.9-5.4c0-1.5-0.4-2.7-1.3-3.6c-0.8-0.9-2-1.6-3.4-2.1c-1.4-0.5-3-0.8-4.7-1.1c-1.7-0.2-3.4-0.5-5.1-0.7
			c-1.7,0.8-3.1,1.8-4.1,2.9c-1.1,1.2-1.6,2.6-1.6,4.3c0,2.3,1,4.1,3,5.5C321.3,152.7,323.7,153.3,326.5,153.3z M326.3,117.1
			c2.3,0,4.1-0.9,5.5-2.6c1.3-1.8,2-4,2-6.7v-2.2c0-2.6-0.6-4.8-1.9-6.5c-1.3-1.8-3.2-2.6-5.6-2.6c-2.4,0-4.2,0.9-5.5,2.6
			c-1.3,1.8-1.9,3.9-1.9,6.5v2.1c0,2.7,0.6,4.9,1.9,6.7C322,116.2,323.8,117.1,326.3,117.1z"/>
		<path d="M377.2,139.8c-4.1,0-7.8-1-11.3-3c-3.4-2-6.2-4.6-8.3-7.9c-2.1-3.3-3.2-6.8-3.2-10.6v-8.6c0-3.8,1-7.3,3.1-10.6
			c2-3.3,4.8-5.9,8.3-7.8c3.5-2,7.3-2.9,11.4-2.9c4.1,0,7.9,1,11.4,2.9c3.5,1.9,6.2,4.5,8.3,7.7c2.1,3.2,3.1,6.8,3.1,10.7v8.6
			c0,3.7-1.1,7.2-3.2,10.5c-2.1,3.3-4.9,6-8.4,8C385,138.7,381.2,139.8,377.2,139.8z M377.2,127.9c1.7,0,3.2-0.5,4.6-1.4
			c1.4-0.9,2.5-2.1,3.4-3.6c0.8-1.5,1.3-3.1,1.3-4.7v-8.6c0-1.6-0.4-3.1-1.3-4.5c-0.8-1.4-1.9-2.6-3.3-3.5c-1.4-0.9-2.9-1.4-4.7-1.4
			c-1.7,0-3.2,0.5-4.6,1.4c-1.4,0.9-2.5,2.1-3.3,3.5c-0.8,1.4-1.2,3-1.2,4.6v8.6c0,1.6,0.4,3.2,1.2,4.7c0.8,1.5,1.9,2.7,3.3,3.6
			C373.9,127.4,375.5,127.9,377.2,127.9z"/>
	</g>
	<path d="M95.6,108.1l-14.7,14.7l14.7,14.7l14.7-14.7L95.6,108.1z M56.5,143.2l-14.7-14.7c-1.1-1.1-2.8-1.1-3.9,0l-14.7,14.7
		c-1.1,1.1-2.8,1.1-3.9,0L0.8,124.7c-1.1-1.1-1.1-2.8,0-3.9l37.1-37.1c1.1-1.1,2.8-1.1,3.9,0l14.7,14.7c1.1,1.1,2.8,1.1,3.9,0
		l14.7-14.7c1.1-1.1,2.8-1.1,3.9,0l10.8,10.8c1.1,1.1,1.1,2.8,0,3.9v0c-1.1,1.1-2.8,1.1-3.9,0l-6.9-6.9c-1.1-1.1-2.8-1.1-3.9,0
		l-10.8,10.8c-1.1,1.1-1.1,2.8,0,3.9l10.8,10.8c1.1,1.1,2.8,1.1,3.9,0l14.7-14.7c1.1-1.1,2.8-1.1,3.9,0l18.6,18.5
		c1.1,1.1,1.1,2.8,0,3.9l-18.6,18.5c-1.1,1.1-2.8,1.1-3.9,0l-14.7-14.7c-1.1-1.1-2.8-1.1-3.9,0l-14.7,14.7
		C59.3,144.3,57.6,144.3,56.5,143.2L56.5,143.2z M43.8,122.8l14.7,14.7l14.7-14.7l-14.7-14.7L43.8,122.8z M31,110l8.9,8.9l14.7-14.7
		L39.9,89.5L6.6,122.8l14.7,14.7L36,122.8l-8.9-8.9c-1.1-1.1-1.1-2.8,0-3.9h0C28.2,109,29.9,109,31,110z"/>
</g>
</svg>
