<?xml version="1.0" encoding="UTF-8" standalone="no"?>
<svg
   xmlns:dc="http://purl.org/dc/elements/1.1/"
   xmlns:cc="http://creativecommons.org/ns#"
   xmlns:rdf="http://www.w3.org/1999/02/22-rdf-syntax-ns#"
   xmlns:svg="http://www.w3.org/2000/svg"
   xmlns="http://www.w3.org/2000/svg"
   xmlns:sodipodi="http://sodipodi.sourceforge.net/DTD/sodipodi-0.dtd"
   xmlns:inkscape="http://www.inkscape.org/namespaces/inkscape"
   width="271.58136pt"
   version="1.1"
   height="63.596741pt"
   viewBox="0 0 271.58135 63.596742"
   id="svg2"
   inkscape:version="0.92.4 5da689c313, 2019-01-14"
   sodipodi:docname="reuse-horizontal.svg"
   inkscape:export-filename="/home/max/Repositories/fsfe/reuse-ci/reuse-horizontal.png"
   inkscape:export-xdpi="56.606674"
   inkscape:export-ydpi="56.606674">
  <metadata
     id="metadata47">
    <rdf:RDF>
      <cc:Work
         rdf:about="">
        <dc:format>image/svg+xml</dc:format>
        <dc:type
           rdf:resource="http://purl.org/dc/dcmitype/StillImage" />
        <dc:title></dc:title>
      </cc:Work>
    </rdf:RDF>
  </metadata>
  <sodipodi:namedview
     pagecolor="#ffffff"
     bordercolor="#666666"
     borderopacity="1"
     objecttolerance="10"
     gridtolerance="10"
     guidetolerance="10"
     inkscape:pageopacity="0"
     inkscape:pageshadow="2"
     inkscape:window-width="1920"
     inkscape:window-height="1010"
     id="namedview45"
     showgrid="false"
     inkscape:zoom="1.566805"
     inkscape:cx="138.62696"
     inkscape:cy="-107.59191"
     inkscape:window-x="0"
     inkscape:window-y="23"
     inkscape:window-maximized="1"
     inkscape:current-layer="Background"
     fit-margin-top="0"
     fit-margin-left="0"
     fit-margin-right="0"
     fit-margin-bottom="0"
     inkscape:snap-page="true" />
  <defs
     id="defs4" />
  <g
     id="Background"
     transform="translate(-213.511,-183.95313)">
    <path
       style="fill:#4d4d4d;fill-rule:nonzero;stroke:none;stroke-width:1.73908663"
       d="m 314.14017,203.75962 c 2.15125,0 3.7999,-0.50957 4.95118,-1.52692 1.15129,-1.0191 1.72518,-2.37733 1.72518,-4.07469 v -0.11308 c 0,-1.88518 -0.60346,-3.30079 -1.80866,-4.24338 -1.21039,-0.94258 -2.88688,-1.41561 -5.03812,-1.41561 h -8.65718 v 11.37363 z m -17.54044,-19.23778 h 18.10739 c 5.01553,0 8.86412,1.33735 11.54232,4.01555 2.26428,2.2643 3.39469,5.2816 3.39469,9.05369 v 0.1148 c 0,3.20513 -0.78259,5.81725 -2.34951,7.83633 -1.56343,2.01908 -3.61034,3.49729 -6.13898,4.44162 l 9.67802,14.14574 h -10.18583 l -8.48847,-12.67274 h -0.1131 -6.73374 v 12.67274 h -8.71283 z m 40.91027,0 h 29.82015 v 7.75111 h -21.2186 v 8.03631 h 18.67256 v 7.75113 h -18.67256 v 8.31803 h 21.50032 v 7.75113 H 337.51 Z m 54.43344,40.23029 c -5.31813,0 -9.50586,-1.46952 -12.56143,-4.4138 -3.05385,-2.94079 -4.58249,-7.33547 -4.58249,-13.18402 v -22.63247 h 8.71281 v 22.4064 c 0,3.24513 0.75478,5.6868 2.2643,7.32676 1.50779,1.64344 3.60339,2.46254 6.28159,2.46254 2.67819,0 4.77204,-0.79302 6.27983,-2.37732 1.50953,-1.58258 2.26429,-3.95991 2.26429,-7.13026 v -22.68812 h 8.71282 v 22.349 c 0,3.02078 -0.40346,5.63986 -1.21562,7.86589 -0.81214,2.22603 -1.97212,4.08338 -3.4799,5.57378 -1.5078,1.49038 -3.33905,2.60341 -5.48857,3.33904 -2.14951,0.7339 -4.54597,1.10258 -7.18763,1.10258 z m 40.40419,-0.0557 c -3.01905,0 -5.98072,-0.51999 -8.88499,-1.55648 -2.90428,-1.03649 -5.54595,-2.63123 -7.92155,-4.78074 l 5.14943,-6.16854 c 1.8104,1.46952 3.66948,2.63992 5.57377,3.50774 1.90432,0.8678 3.98775,1.30083 6.25029,1.30083 1.81213,0 3.21731,-0.32869 4.21728,-0.9878 0.99999,-0.66086 1.4991,-1.57562 1.4991,-2.74428 v -0.11481 c 0,-0.56521 -0.10262,-1.06433 -0.30955,-1.49909 -0.2087,-0.43476 -0.6052,-0.83998 -1.18955,-1.21562 -0.59476,-0.37913 -1.40517,-0.75651 -2.44166,-1.13215 -1.03824,-0.37738 -2.39647,-0.77389 -4.05556,-1.18954 -2.01039,-0.48866 -3.82077,-1.03649 -5.45204,-1.63994 -1.62256,-0.60347 -3.00861,-1.34954 -4.13902,-2.23648 -1.13214,-0.8852 -2.01909,-1.98951 -2.63993,-3.30947 -0.62435,-1.31998 -0.93564,-2.95993 -0.93564,-4.92336 v -0.11126 c 0,-1.81212 0.34086,-3.44339 1.00868,-4.89552 0.67998,-1.45387 1.62257,-2.70602 2.83993,-3.76339 1.21735,-1.05562 2.67818,-1.86605 4.3651,-2.43297 1.6904,-0.56522 3.55644,-0.85043 5.5929,-0.85043 2.90602,0 5.57378,0.43477 8.00676,1.30259 2.43472,0.86779 4.66945,2.11299 6.70592,3.73555 l -4.52684,6.56331 c -1.77214,-1.20694 -3.50774,-2.15996 -5.20683,-2.85731 -1.69561,-0.69912 -3.3947,-1.04694 -5.09205,-1.04694 -1.69735,0 -2.97037,0.33042 -3.81903,0.99128 -0.84868,0.65911 -1.27302,1.47997 -1.27302,2.46081 v 0.1131 c 0,0.63998 0.12348,1.19822 0.3687,1.6695 0.24346,0.47131 0.68694,0.89564 1.32865,1.27302 0.65043,0.37738 1.52691,0.73391 2.64168,1.07477 1.11996,0.33911 2.5269,0.73563 4.22425,1.18779 2.00863,0.52868 3.7999,1.12344 5.36507,1.78257 1.56692,0.66084 2.89733,1.45386 3.97208,2.37732 1.07476,0.92346 1.8956,2.00864 2.44167,3.25383 0.54608,1.24519 0.82085,2.73385 0.82085,4.46946 v 0.1148 c 0,1.96169 -0.35825,3.70426 -1.06606,5.23118 -0.71651,1.52865 -1.70604,2.81209 -2.97905,3.84859 -1.27301,1.03823 -2.80167,1.83126 -4.5651,2.37734 -1.76518,0.5478 -3.72514,0.82084 -5.87464,0.82084 z m 22.06727,-40.17464 h 29.82012 v 7.75111 h -21.22033 v 8.03632 H 481.689 v 7.75112 h -18.67431 v 8.31804 h 21.5038 v 7.75112 H 454.4149 Z"
       id="path7"
       inkscape:connector-curvature="0" />
    <path
       style="fill:#4d4d4d;fill-rule:nonzero;stroke:none;stroke-width:1.73908663"
       d="m 302.51437,247.50807 c -1.15821,0 -2.21732,-0.18955 -3.17557,-0.56869 -0.95824,-0.38085 -1.87299,-0.9617 -2.7408,-1.74951 l 1.01215,-1.19823 c 0.75998,0.68868 1.52518,1.2017 2.29733,1.54257 0.7739,0.33566 1.66257,0.50608 2.66776,0.50608 0.98084,0 1.7617,-0.23129 2.3495,-0.6939 0.58608,-0.46085 0.87825,-1.05041 0.87825,-1.76865 v -0.0418 c 0,-0.33042 -0.0539,-0.63129 -0.16521,-0.8991 -0.10955,-0.26956 -0.3026,-0.51303 -0.58261,-0.73389 -0.2765,-0.22087 -0.6591,-0.42086 -1.14778,-0.60173 -0.49217,-0.17913 -1.11648,-0.3513 -1.87995,-0.5165 -0.8278,-0.1774 -1.55127,-0.38783 -2.16342,-0.61912 -0.61912,-0.23478 -1.1252,-0.51825 -1.52519,-0.85041 -0.39999,-0.3287 -0.69912,-0.7165 -0.89388,-1.15824 -0.19305,-0.43999 -0.28869,-0.9565 -0.28869,-1.54952 v -0.0435 c 0,-0.5652 0.11822,-1.0904 0.35129,-1.5704 0.23478,-0.48347 0.56693,-0.90084 0.99302,-1.25214 0.42955,-0.35303 0.93215,-0.6278 1.51127,-0.82781 0.57911,-0.19998 1.21212,-0.29912 1.90255,-0.29912 1.06259,0 1.98952,0.14783 2.78081,0.44521 0.79302,0.29564 1.56343,0.74085 2.30776,1.33213 l -0.95128,1.26259 c -0.67477,-0.55129 -1.35648,-0.95127 -2.03648,-1.19823 -0.68345,-0.25043 -1.39648,-0.37391 -2.14254,-0.37391 -0.95129,0 -1.70258,0.22436 -2.2556,0.67129 -0.54956,0.44869 -0.82607,1.0052 -0.82607,1.66605 v 0.0417 c 0,0.34434 0.0557,0.65216 0.16348,0.91998 0.11309,0.26955 0.31129,0.51651 0.60172,0.74607 0.28869,0.2278 0.69042,0.43303 1.20171,0.61911 0.50956,0.18782 1.16345,0.36172 1.96169,0.52868 1.61387,0.35825 2.80514,0.85389 3.57035,1.48867 0.7652,0.63476 1.14605,1.50431 1.14605,2.60513 v 0.0435 c 0,0.61912 -0.12176,1.1826 -0.36869,1.68693 -0.24347,0.50259 -0.58085,0.93388 -1.01214,1.29214 -0.4313,0.35824 -0.9478,0.63475 -1.55475,0.82606 -0.60869,0.19303 -1.26952,0.29042 -1.98604,0.29042 z m 24.30374,-1.46778 c 0.82607,0 1.58953,-0.15652 2.28516,-0.46608 0.69738,-0.31129 1.29388,-0.73563 1.78952,-1.27302 0.49739,-0.53736 0.88519,-1.16518 1.16867,-1.88168 0.28347,-0.71825 0.42607,-1.4904 0.42607,-2.31646 v -0.0418 c 0,-0.82781 -0.1426,-1.60343 -0.42607,-2.3269 -0.28348,-0.72519 -0.67824,-1.35475 -1.18779,-1.89386 -0.51129,-0.53738 -1.11476,-0.9652 -1.81213,-1.2817 -0.69389,-0.31826 -1.45736,-0.47652 -2.2869,-0.47652 -0.82606,0 -1.58778,0.15651 -2.28343,0.46607 -0.69736,0.30958 -1.29388,0.7339 -1.78951,1.27129 -0.49564,0.53738 -0.88693,1.16691 -1.16867,1.88341 -0.28346,0.71652 -0.42433,1.48867 -0.42433,2.31822 v 0.0401 c 0,0.8278 0.14087,1.6017 0.42433,2.3269 0.28174,0.7252 0.67825,1.35476 1.1878,1.89386 0.50955,0.53565 1.11475,0.96521 1.81039,1.28171 0.69736,0.31651 1.45908,0.47652 2.28689,0.47652 z m -0.0435,1.50952 c -1.10085,0 -2.1043,-0.19999 -3.00862,-0.59998 -0.90433,-0.39999 -1.67995,-0.94259 -2.3269,-1.6243 -0.64868,-0.68171 -1.14779,-1.47476 -1.49909,-2.37908 -0.3513,-0.90258 -0.52868,-1.85038 -0.52868,-2.8434 v -0.0418 c 0,-0.99301 0.18086,-1.94603 0.53912,-2.85384 0.35825,-0.91127 0.86258,-1.70777 1.50952,-2.3895 0.64695,-0.68345 1.42778,-1.22954 2.33733,-1.63647 0.90954,-0.40522 1.91647,-0.61043 3.02079,-0.61043 1.10433,0 2.10603,0.20173 3.00862,0.59998 0.90433,0.40174 1.67996,0.94258 2.3269,1.62606 0.64868,0.68172 1.14954,1.47301 1.50258,2.37732 0.35129,0.90433 0.52521,1.85213 0.52521,2.84689 0.0139,0.0122 0.0139,0.0243 0,0.0401 0,0.99128 -0.1774,1.9443 -0.53566,2.85385 -0.35825,0.91127 -0.86258,1.70604 -1.51126,2.39125 -0.64868,0.67997 -1.4278,1.22605 -2.33734,1.63298 -0.91127,0.40695 -1.9182,0.61043 -3.02252,0.61043 z m 20.14732,-14.73006 h 10.40669 v 1.51127 h -8.77196 v 5.1929 h 7.84156 v 1.4678 h -7.84156 v 6.3094 h -1.63473 z m 26.68281,1.51127 h -4.86249 v -1.51127 h 11.35797 v 1.51127 h -4.86074 v 12.9701 h -1.63474 z m 17.74563,-1.51127 h 1.77912 l 4.13728,12.0623 3.97208,-12.10229 h 1.34431 l 3.97208,12.10229 4.13729,-12.0623 h 1.71821 l -5.17378,14.58399 h -1.38605 l -3.97208,-11.74928 -3.99293,11.74928 h -1.36345 z m 42.69284,9.18585 -3.28688,-7.3859 -3.31122,7.3859 z m -4.03293,-9.28845 h 1.53038 l 6.59983,14.58397 h -1.75821 l -1.69734,-3.82598 h -7.88154 l -1.71649,3.82598 h -1.67474 z m 26.36106,7.48851 c 0.5426,0 1.03998,-0.0696 1.49389,-0.20696 0.45737,-0.13738 0.85213,-0.3339 1.18257,-0.58954 0.33216,-0.25392 0.59302,-0.56521 0.77738,-0.93041 0.1878,-0.36696 0.27999,-0.78259 0.27999,-1.25216 v -0.0401 c 0,-0.89737 -0.32348,-1.59648 -0.97563,-2.10083 -0.64868,-0.50259 -1.55996,-0.75476 -2.73559,-0.75476 h -4.47989 v 5.87464 z m -6.09201,-7.38591 h 6.22593 c 0.89737,0 1.69386,0.12695 2.39123,0.38435 0.69563,0.2539 1.27129,0.60868 1.72519,1.06431 0.35824,0.35999 0.63649,0.77911 0.82954,1.26258 0.1913,0.48173 0.28868,1.01388 0.28868,1.59301 v 0.04 c 0,0.60867 -0.0974,1.14954 -0.28868,1.6243 -0.19305,0.47651 -0.46783,0.88867 -0.81911,1.24171 -0.34956,0.35304 -0.76693,0.64173 -1.25215,0.86955 -0.47999,0.22609 -1.00519,0.38781 -1.57038,0.48521 l 4.44857,5.91636 h -2.00863 l -4.19991,-5.62594 h -0.0401 -4.09554 v 5.62594 h -1.63474 z m 24.24286,0 h 10.46583 v 1.46953 h -8.83283 v 4.98596 h 7.90241 v 1.46953 h -7.90241 v 5.08682 h 8.93717 v 1.46953 H 474.5222 Z"
       id="path9"
       inkscape:connector-curvature="0" />
    <path
       style="fill:#f15829;fill-rule:evenodd;stroke:none"
       d="M 11.132,12.854 V 0 L 0,6.428 Z"
       transform="translate(214.689,209.215)"
       id="path11"
       inkscape:connector-curvature="0" />
    <path
       style="fill:#bf1e2e;fill-rule:evenodd;stroke:none"
       d="M 11.132,12.856 V 0 L 0,6.428 Z"
       transform="translate(214.689,226.147)"
       id="path13"
       inkscape:connector-curvature="0" />
    <path
       style="fill:#bb529f;fill-rule:evenodd;stroke:none"
       d="M 0,12.856 11.134,6.428 0,0 Z"
       transform="translate(213.512,234.614)"
       id="path15"
       inkscape:connector-curvature="0" />
    <path
       style="fill:#da8d27;fill-rule:evenodd;stroke:none"
       d="M 0,0 V 12.855 L 11.133,6.428 Z"
       transform="translate(213.512,200.748)"
       id="path17"
       inkscape:connector-curvature="0" />
    <path
       style="fill:#ed1b26;fill-rule:evenodd;stroke:none"
       d="M 0,12.855 11.133,6.427 0,0 Z"
       transform="translate(213.512,217.681)"
       id="path19"
       inkscape:connector-curvature="0" />
    <path
       style="fill:#ffee00;fill-rule:evenodd;stroke:none"
       d="M 11.133,12.855 V 0 L 0,6.428 Z"
       transform="translate(214.688,192.984)"
       id="path21"
       inkscape:connector-curvature="0" />
    <path
       style="fill:#06bfed;fill-rule:evenodd;stroke:none"
       d="M 11.133,12.856 V 0 L 0,6.428 Z"
       transform="translate(229.353,201.45)"
       id="path23"
       inkscape:connector-curvature="0" />
    <path
       style="fill:#03b0db;fill-rule:evenodd;stroke:none"
       d="M 11.133,6.427 0,0 v 12.855 z"
       transform="translate(242.804,200.77)"
       id="path25"
       inkscape:connector-curvature="0" />
    <path
       style="fill:#fcae40;fill-rule:evenodd;stroke:none"
       d="M 0,0 V 12.854 L 11.133,6.427 Z"
       transform="translate(213.511,184.518)"
       id="path27"
       inkscape:connector-curvature="0" />
    <path
       style="fill:#00ccff;fill-rule:evenodd;stroke:none"
       d="M 11.133,6.427 0,0 v 12.855 z"
       transform="translate(228.176,192.984)"
       id="path29"
       inkscape:connector-curvature="0" />
    <path
       style="fill:#00a4c9;fill-rule:evenodd;stroke:none"
       d="M 11.133,0 11.134,12.854 0,6.427 Z"
       transform="translate(243.713,209.391)"
       id="path31"
       inkscape:connector-curvature="0" />
    <path
       style="fill:#0197b8;fill-rule:evenodd;stroke:none"
       d="M 11.133,6.428 0,0 v 12.856 z"
       transform="translate(257.246,209.364)"
       id="path33"
       inkscape:connector-curvature="0" />
    <path
       style="fill:#577523;fill-rule:evenodd;stroke:none"
       d="M 11.133,6.428 0,0 v 12.855 z"
       transform="translate(242.572,217.794)"
       id="path35"
       inkscape:connector-curvature="0" />
    <path
       style="fill:#75992d;fill-rule:evenodd;stroke:none"
       d="M 11.132,0 0,6.426 11.132,12.854 Z"
       transform="translate(229.354,218.099)"
       id="path37"
       inkscape:connector-curvature="0" />
    <path
       style="fill:#98c739;fill-rule:evenodd;stroke:none"
       d="M 11.133,6.428 0,0 v 12.855 z"
       transform="translate(228.544,226.42)"
       id="path39"
       inkscape:connector-curvature="0" />
    <path
       style="fill:#bbda85;fill-rule:evenodd;stroke:none"
       d="M 11.133,12.855 0,6.428 11.133,0 Z"
       transform="translate(229.374,234.653)"
       id="path41"
       inkscape:connector-curvature="0" />
    <path
       style="fill:#445c1c;fill-rule:evenodd;stroke:none"
       d="M 11.133,6.429 0,0 v 12.856 z"
       transform="translate(242.572,234.652)"
       id="path43"
       inkscape:connector-curvature="0" />
  </g>
</svg>
